A cool title
…
#> [1] 22941796
#> [1] 22941796

Merging and Joining: As the vehicle data was split across multiple files, it was necessary to combine them for a holistic view.

#> # A tibble: 3,060,288 x 7
#>    Location    Fuel   Month    Year  Count Category      Sub_category
#>    <chr>       <chr>  <chr>    <chr> <int> <chr>         <chr>       
#>  1 Switzerland Petrol January  2005  12203 Passenger ca~ Passenger c~
#>  2 Switzerland Petrol January  2006  12641 Passenger ca~ Passenger c~
#>  3 Switzerland Petrol January  2007  11917 Passenger ca~ Passenger c~
#>  4 Switzerland Petrol January  2008  13441 Passenger ca~ Passenger c~
#>  5 Switzerland Petrol February 2005  11566 Passenger ca~ Passenger c~
#>  6 Switzerland Petrol February 2006  11987 Passenger ca~ Passenger c~
#>  7 Switzerland Petrol February 2007  12446 Passenger ca~ Passenger c~
#>  8 Switzerland Petrol February 2008  14001 Passenger ca~ Passenger c~
#>  9 Switzerland Petrol March    2005  17139 Passenger ca~ Passenger c~
#> 10 Switzerland Petrol March    2006  19181 Passenger ca~ Passenger c~
#> # i 3,060,278 more rows
…
