Enegizing change
…
# Display the interactive plot
interactive_plot_seaso_2

texttexttext

Row

Chart 1

df_v #this work
#> # A tibble: 2,594,592 x 5
#>    Location    VehicleType   Fuel                Count Date      
#>    <chr>       <chr>         <chr>               <int> <date>    
#>  1 Switzerland Passenger car Petrol              12203 2005-01-01
#>  2 Switzerland Passenger car Diesel               5300 2005-01-01
#>  3 Switzerland Passenger car Conventional hybrid    22 2005-01-01
#>  4 Switzerland Passenger car Plug-in hybrid          0 2005-01-01
#>  5 Switzerland Passenger car Conventional hybrid     0 2005-01-01
#>  6 Switzerland Passenger car Plug-in hybrid          0 2005-01-01
#>  7 Switzerland Passenger car Electricity             0 2005-01-01
#>  8 Switzerland Passenger car Hydrogen                0 2005-01-01
#>  9 Switzerland Passenger car Gas                    33 2005-01-01
#> 10 Switzerland Passenger car Other                   4 2005-01-01
#> # i 2,594,582 more rows

>>>>>>> b6bc9f4eb6bd4be8a25f17a9cf3e4b3403469162

<<<<<<< HEAD

Row

Chart 1

df_v #this work
#> # A tibble: 2,594,592 x 5
#>    Location    VehicleType   Fuel                Count Date      
#>    <chr>       <chr>         <chr>               <int> <date>    
#>  1 Switzerland Passenger car Petrol              12203 2005-01-01
#>  2 Switzerland Passenger car Diesel               5300 2005-01-01
#>  3 Switzerland Passenger car Conventional hybrid    22 2005-01-01
#>  4 Switzerland Passenger car Plug-in hybrid          0 2005-01-01
#>  5 Switzerland Passenger car Conventional hybrid     0 2005-01-01
#>  6 Switzerland Passenger car Plug-in hybrid          0 2005-01-01
#>  7 Switzerland Passenger car Electricity             0 2005-01-01
#>  8 Switzerland Passenger car Hydrogen                0 2005-01-01
#>  9 Switzerland Passenger car Gas                    33 2005-01-01
#> 10 Switzerland Passenger car Other                   4 2005-01-01
#> # i 2,594,582 more rows
…
