Energizing Change: Electric Vehicle Rise in Switzerland
…
Merging and Joining

As the vehicle data was split across multiple files, it was necessary to combine them for a holistic view.

Code

df_v <- bind_rows(v_2005_2008, v_2009_2022)
df_v <- df_v |>
  arrange(df_v$Year)
df_v
#> # A tibble: 2,594,592 x 6
#>    Location    VehicleType   Fuel   Month     Year  Count
#>    <chr>       <chr>         <chr>  <chr>     <chr> <int>
#>  1 Switzerland Passenger car Petrol January   2005  12203
#>  2 Switzerland Passenger car Petrol February  2005  11566
#>  3 Switzerland Passenger car Petrol March     2005  17138
#>  4 Switzerland Passenger car Petrol April     2005  20334
#>  5 Switzerland Passenger car Petrol May       2005  18097
#>  6 Switzerland Passenger car Petrol June      2005  19425
#>  7 Switzerland Passenger car Petrol July      2005  15645
#>  8 Switzerland Passenger car Petrol August    2005  13250
#>  9 Switzerland Passenger car Petrol September 2005  14803
#> 10 Switzerland Passenger car Petrol October   2005  14126
#> # i 2,594,582 more rows
…
Count by vehicle Type for further analysis

Code

(count_by_vehicle_type <- df_v |>
  group_by(VehicleType) %>%
  summarize(Count = sum(Count)) |>
  arrange(desc(Count)))
#> # A tibble: 39 x 2
#>    VehicleType                   Count
#>    <chr>                         <int>
#>  1 Passenger car              10451028
#>  2 Motorcycle                  1560102
#>  3 Delivery vehicle             994246
#>  4 Cargo trailer                482458
#>  5 Light motor vehicle          129666
#>  6 Goods truck (lorry)          112452
#>  7 Farm tractor                  95200
#>  8 Industrial utility vehicle    67900
#>  9 Small motorcycle              65016
#> 10 Caravan                       59160
#> # i 29 more rows
…
