Energizing Change: Electric Vehicle Rise in Switzerland
…
# Merge datasets based on the "Date" column
merged_data <- reduce(processed_datasets, left_join, by = "Date")

# Sum the values for each search term for a given date
df_summed <- merged_data %>%
  rowwise() %>%
  mutate(Sum_SearchCount = sum(c_across(starts_with("SearchCount"))))

# Normalize the Sum_SearchCount values between 1 and 100
df_summed$SearchRatio <- df_summed$Sum_SearchCount / 8

# Print the result
df_gtrends <- df_summed[,-(2:10)]
df_gtrends
#> # A tibble: 216 x 2
#> # Rowwise: 
#>    Date       SearchRatio
#>    <date>           <dbl>
#>  1 2005-01-01       29.4 
#>  2 2005-02-01       10.6 
#>  3 2005-03-01       17.9 
#>  4 2005-04-01        5.62
#>  5 2005-05-01       21.1 
#>  6 2005-06-01       21.8 
#>  7 2005-07-01        7.75
#>  8 2005-08-01       16.9 
#>  9 2005-09-01       14.5 
#> 10 2005-10-01        8.5 
#> # i 206 more rows
…
